{
    "name": {
        "firstname": "Christian Asnel",
        "lastname": "Ngoulla Sob"
    },
    "age": 20,
    "nationality": "Cameroon",
    "location": "Yaounde",
    "languages": [
        {
            "language": "English",
            "mastery": "Proficient"
        },
        {
            "language": "French",
            "mastery": "Native"
        }
    ],
    "education": {
        "diploma": "BSc in computer science",
        "gpa": "3.67",
        "school": {
            "name": "University of Buea",
            "link": "https://ubuea.cm"
        },
        "year": 2018
    },
    "passions": [
        "Programming",
        "Music"
    ],
    "personality": [
        "Hard working",
        "creative",
        "Funny"
    ],
    "interests": [
        "Full stack development",
        "Data Science",
        "Web design"
    ],
    "dreams": [
        "Make a living from my passion: programming",
        "Be a father"
    ],
    "beliefs": [
        "Everybody deserves a chance",
        "A programmer is similar to a game of golf.The point is not getting the ball in the hole but how many strokes it takes."
    ],
    "website": "https://asnelchristian.me"
}